https://web.archive.org/web/20000101000000*/http://match.com
https://web.archive.org/web/20010101000000*/http://match.com
https://web.archive.org/web/20020101000000*/http://match.com
https://web.archive.org/web/20030101000000*/http://match.com
https://web.archive.org/web/20040101000000*/http://match.com
https://web.archive.org/web/20050101000000*/http://match.com
https://web.archive.org/web/20060101000000*/http://match.com
https://web.archive.org/web/20070101000000*/http://match.com
https://web.archive.org/web/20080101000000*/http://match.com
https://web.archive.org/web/20090101000000*/http://match.com
https://web.archive.org/web/20100101000000*/http://match.com
https://web.archive.org/web/20110101000000*/http://match.com
https://web.archive.org/web/20120101000000*/http://match.com
https://web.archive.org/web/20130101000000*/http://match.com
https://web.archive.org/web/20140101000000*/http://match.com
