Title,Client,Budget,Duration,Posted,Quotes,Description,Link
"Simple 3 Page Website, WordPress, Gravity Forms, M",George M.,Less Than $500,One Time Job,48 mins ago,1 Quote,"Simple 3 Page Website using Wordpress, Gravity Forms and Mail Chimp.
We have obtained the domain and hosting with HostGator and this website is created for OWNERS that want to sell their apartment complexes. We need a SQL/gravity Forms type...",https://www.outsource.com/job-request?id=92111216
NEW APP,Juliana H.,Less Than $500,One Time Job,1 hour ago,0 Quotes,"Hi, I need someone to do a Beta Version of an APP that works like Venmo. It doesn't need to be the full version, just an initial mockup! It can become a ongoing part time work :)",https://www.outsource.com/job-request?id=22108794
Wordpress Website,JAIKRISHNAN M.,$500 - $1000,One Time Job,3 hours ago,5 Quotes,"We are looking for a website architect and UI designer to construct a room booking portal, with payment gateway, realtime database sync",https://www.outsource.com/job-request?id=32102063
access data from a foxpro database,Dave  B.,Less Than $500,One Time Job,2 hours ago,6 Quotes,"We are a beauty school.  We have student data  i.e.  grades, in our student information system.  The student information system uses a foxpro database.

I am looking to create a web site that will prompt the student for their username and password...",https://www.outsource.com/job-request?id=42098397
Mobile Web Site,David B.,Less Than $500,Ongoing Part Time Work,3 hours ago,3 Quotes,"Open to which skills needed. No preference on build.

1)	Home - photo, logo at top, with internal links next and Social Media Icons at the bottom of the page, facebook, instagram, yelp
2)	about  - photo & text only
3)	Promotions - vertical list...",https://www.outsource.com/job-request?id=62093271
Microsoft workflow Foundation,Ahmad K.,$500 - $1000,One Time Job,33 mins ago,0 Quotes,"Hi all ,

i need some one have experience in Microsoft Workflow Foundation ""Visual Studio 2010"" 

Thanks,",https://www.outsource.com/job-request?id=52068671
Mixtape Site,Miek  F.,Less Than $500,Ongoing Part Time Work,17 hours ago,8 Quotes,"Want to create a simple site right now for my mixtape site i want it to be a few pages HOME/ARTIST/STORE/CONTACT 
Home page - i would like a banner with artwork ill display for ads 
below that i want a search bar for the site an below that i want...",https://www.outsource.com/job-request?id=22046740
Publish a website,Oscar G.,Less Than $500,One Time Job,21 hours ago,14 Quotes,"Thank you for reading my posting. I have a website hosted in Goddaddy that I accidentally brought down and I don't know how to make it public again. 

The outcome of this job is to have my website published again. I managed the website from...",https://www.outsource.com/job-request?id=82034424
Wordpress site needed,Anna H.,Less Than $500,One Time Job,21 hours ago,17 Quotes,I need a Worpress site done for a Food blog. It will have around 5-6 pages. I have a current Wordpress site that needs new theme and some redesign.,https://www.outsource.com/job-request?id=52032891
Mobil journal app for iPad,Rick B.,$500 - $1000,Ongoing Part Time Work,1 day ago,6 Quotes,"Need a journal-type app so users can time/date stamp entries and add pictures. Users will start a ""Project"" then make entries with time/date stamps. Users will not be able to change/erase any entry after it's made.
Users should be able to add a...",https://www.outsource.com/job-request?id=42022973
Wordpress Site (large),Steve W.,More Than $1000 +,Ongoing Part Time Work,1 day ago,16 Quotes,"Looking for a WordPress front and back-end person to jump into an existing project and get it back on track. Large website that just isn't coming out the way that we want it. What we really need is a team person who can listen to our desires, work...",https://www.outsource.com/job-request?id=82022644
Site makeover,Karen J.,Less Than $500,One Time Job,1 day ago,14 Quotes,"We need someone to makeover our site, with a few changes and additions, by translating existing site into a wordpress responsive (mobile-friendly) and more user friendly one. Will also be moving to a different server.  We're launching a new business...",https://www.outsource.com/job-request?id=12021228
Need developer for front end android app...,Walter S.,$500 - $1000,One Time Job,1 day ago,5 Quotes,"I need an experienced developer with HTML5 and javascript knowledge to create the Android front end for my mobile app backend. The backend is already completed. I need this completed and tested for proper functionality by the end of January, 2016....",https://www.outsource.com/job-request?id=22013475
Combining technologies,Jon M.,More Than $1000 +,One Time Job,1 day ago,8 Quotes,"Hello

I have a customer who is looking for someone with experience in the following 3 web based technologies.

Wordpress (wordpress.com)
Survey Gizmo (surveygizmo.com)
Wealth Access (wealthaccess.com)

Here is the exact email that he sent...",https://www.outsource.com/job-request?id=92011393
Laravel developer,Sarah G.,Less Than $500,Ongoing Part Time Work,1 day ago,3 Quotes,"Hi,

I am looking for a developer who can adjust an existing website (Laravel 4). The design has to be implemented, some features has to be added, some changes has to be made and some bugs has to be fixed.

The website is hosted on a vps on...",https://www.outsource.com/job-request?id=51982178
ECommerce Website,Russ F.,$500 - $1000,One Time Job,1 day ago,19 Quotes,"Require an ecommerce for  line of custom gaming systems and components...approximately 200 products under categories of Workstations, Laptops, Components. Require shopping cart, product database .",https://www.outsource.com/job-request?id=61953354
Scrappy - Python with several years of experience,Albert P.,Less Than $500,Ongoing Part Time Work,1 day ago,3 Quotes,"We are looking for an experienced developer to scrape several websites using the Scrappy framework.

Please attach personal examples.

We are looking to hire ASAP.

If you have experience with scraping college courses for U.S colleges that's a...",https://www.outsource.com/job-request?id=21952121
Trend line Expert Advisor MQL4 language,Jack K.,$500 - $1000,One Time Job,1 day ago,1 Quote,"A pure linear trend line EA, with no take profit or other extra's.
Only those with experience in trend line EA's are invited.
All others depending on Fibonacci and other indicators please do not reply.
All particulars will be provided in due time.",https://www.outsource.com/job-request?id=51945340
Android and iOS app development,Eric J.,More Than $1000 +,Ongoing Part Time Work,2 days ago,14 Quotes,"App development including integration with Facebook, OpenTable and Yelp.  Server side data storage and web development.  The mobile and web portion can be done by separate parties.  Web portion should come with suggestions for hosting that can scale...",https://www.outsource.com/job-request?id=81932839
Wordpress site,Ashauntai W.,More Than $1000 +,Ongoing Part Time Work,2 days ago,11 Quotes,"Well I need two things. The first thing I need help with is moving both my sites to my a server that I control along.

I also need help with an adult site that is also in word press that I need to make some changes to. I need to add video...",https://www.outsource.com/job-request?id=21925111
Dirctory Development/Management,Bruce  S.,$500 - $1000,Ongoing Part Time Work,2 days ago,2 Quotes,"I presently own a directory by Brilliant Directories. 

This directory comes built in with a number of templates/options.

I am looking for someone that has experience in the setup and/or design of this directory. My goal is to make this...",https://www.outsource.com/job-request?id=61919344
Web Master needed,Jeremy R.,$500 - $1000,Ongoing Full-Time Work,3 days ago,14 Quotes,"Happy new year everyone on here, am looking for a expert designer that can build commerce design, WordPress website, 15 pages up include E commerce and SSL. Any interested designer should contact me asap so that I can get things running asap",https://www.outsource.com/job-request?id=61838114
website,Eileen J.,Less Than $500,One Time Job,3 days ago,17 Quotes,"Create a website, about us, upload book covers with preview, events, buy now tabs. We are publishing company and I need the website to reflect books and a storefront look",https://www.outsource.com/job-request?id=91767202
Website creation,Nawaz K.,Less Than $500,Ongoing Part Time Work,4 days ago,9 Quotes,"Hi,

I need a website for a classifieds.

The website should be unique and innovative with latest technologies and mobile platform supportive.

Should be interactive and customized.

More details once approved.

Thanks,
Nawaz",https://www.outsource.com/job-request?id=21758574
Responsive and growing webstie,Joe P.,Less Than $500,Ongoing Part Time Work,4 days ago,11 Quotes,"Hello - I need websites.  Below are a few of the things that I need.

Realtor - I have a Domain that I need to drive traffic to in order to boost my presence as a NEW Realtor.  I have no clients to speak of so I need to create some - mostly for...",https://www.outsource.com/job-request?id=21747853
Write an Android/IOS application,Rakesh A.,$500 - $1000,One Time Job,4 days ago,6 Quotes,"Create a mobile app for the following basic requirements in the app document.
kindly go through document and links provided.",https://www.outsource.com/job-request?id=11727833
website for unlock codes,Brandon F.,$500 - $1000,Ongoing Full-Time Work,4 days ago,4 Quotes,"I am looking for someone who can build a website for me that processes unlock codes using an api.

i am starting from scratch so i would like to have an open cart style website that sells unlock codes and services for phones! there is also a way...",https://www.outsource.com/job-request?id=51713611
automated php content grabber / scraping,Garrach A.,$500 - $1000,One Time Job,4 days ago,7 Quotes,"Hello , i need an automated php script ( cron job ) , to get content from http://thewatchseries.to/ :

the script must grab those informations ans store them in the mysql db :
- series list
- logo + desctioptions + categories + Season list +...",https://www.outsource.com/job-request?id=61674073
cleaning service,Marlo B.,Less Than $500,One Time Job,2 days ago,5 Quotes,"basic website build no monthly bill i will like domain address to me
i want photo and logo , cleaning  servie and what i offer  llc general liability
commercial office, shops, daycare,stores,were hose, 
i need some one may have ideals  i will be...",https://www.outsource.com/job-request?id=21442571
